{
  "longTree": {
    "id": 1,
    "root": {
      "Fruit": {
        "Apple": {
          "jhjh": null
        },
        "Orange": null,
        "Lemon": null,
        "Berries": {
          "Strawberry": null,
          "Blueberry": null
        },
        "Banana": null,
        "new": null,
        "nmnm": null
      },
      "Meals": {
        "America": {
          "SmashBurger": null,
          "Chowder": null,
          "Ravioli": null,
          "MacAndCheese": null,
          "Brownies": null
        },
        "Europe": {
          "Risotto": null,
          "Spaghetti": null,
          "Pizza": null,
          "Weisswurst": null,
          "Spargel": null
        },
        "Asia": {
          "Curry": null,
          "PadThai": null,
          "Jiaozi": null,
          "Sushi": null
        },
        "Australia": {
          "PotatoWedges": null,
          "PokeBowl": null,
          "LemonCurd": null,
          "KumaraFries": null
        }
      },
      "Desserts": {
        "Cookies": null,
        "IceCream": null
      },
      "Drinks": {
        "PinaColada": null,
        "Cola": null,
        "Juice": null
      }
    }
  }
}